contributor_id	contributor_type	contributor_year_of_birth	contributor_gender	contributor_place	contributor_occupation	contributor_major_group	nssec_number	contributor_ability	learner	learner_level
g0001	1	1965	2	4	3	2	1.2	1	2	
g0002	1	1983	2	4	3	2	1.2	2	2	
g0003	1	1969	2	21	3			1	1	
g0004	1	1980	1	4	3	3	2	1	2	
g0005	1	1967	2	18	3	3	2	2	1	Uwch
g0006	1	1959	2	4	3	2	1.2	4	1	Uwch 3
g0007	1	1942	2	4	3	1	2	1	2	
g0008	1	1981	2	4	3	9	7	4	1	Sylfaen
g0009	1	1955	2	4	3	3	2	3	1	Uwch 2
g0010	1	1970	2	4	1			3	1	Yn theory uwch 4
g0011	1	1956	2	3	3	2	2	5	1	Mynediad
g0012	1	1955	2	4	3	2	1.2	4	1	Adolygu Uwch
g0013	1	1942	1	18	3			4	1	
g0014	1	1954	2	4	3	4	3	1	2	
g0015	1	1939	1	4	3	2	1.2	1	2	
g0016	1	1939	1	4	3	2	1.2	2	2	
g0017	1	1948	1	10	3			1	2	
g0018	1	1953	2	4	3	2	2	3	2	Hyfodredd
g0019	1	1942	1	21	3	2	2	3	1	TGAU
g0021	1	1982	1	4	3	2	1.2	5	1	Cymraeg i'r teulu
g0022	1	1949	2	4	3	9	6	5	1	
g0023	1	0	1	4	2			4	1	Sylfaen
g0024	1	1962	1	12	3	4	3	5	1	
g0025	1	1964	1	4	3	1	4	1	2	
g0026	1	0	0	0	0			0	0	
g0027	1	0	0	0	0			0	0	
g0028	1	0	0	0	0			0	0	
g0029	1	0	0	0	0			0	0	
g0030	1	0	0	0	0			0	0	
g0031	1	0	0	0	0			0	0	
g0032	1	1970	2	18	3	2	1.2	3	2	
g0033	1	1951	2	4	3			1	2	
g0034	1	1971	1	4	3	2	1.2	1	2	
g0035	1	1979	1	4	3	2	1.2	1	2	
g0036	1	1969	1	4	3	1	1.1	3	1	Uwch 2
g0037	1	0	1	4	3			2	2	
g0038	1	0	0	0	0			0	0	
g0039	1	1985	2	4	3	2	1.2	1	2	
g0041	1	1961	2	4	3	6	6	1	1	
g0042	1	1991	2	4	3			3	2	
g0043	1	1947	1	21	3			2	1	
g0045	1	1966	1	18	3	6	6	4	1	Lefel A
g0046	1	1990	1	4	3	6	6	1	2	
g0047	1	1947	2	18	3	6	6	1	1	Level O
g0048	1	0	4	18	3	6	6	1	2	
g0049	1	1974	1	4	3	1	1.1	1	2	
g0050	1	1977	1	4	3	1	1.1	1	2	
g0051	1	1977	2	4	3			1	2	
g0052	1	1963	1	3	3			1	2	
g0053	1	1967	1	21	3	2	1.2	1	1	
g0054	1	1950	1	4	3			1	2	
g0055	1	1986	0	4	3	3	2	2	2	
g0056	1	1973	1	19	3	4	3	1	2	
g0057	1	1988	1	17	3	3	2	1	2	
g0058	1	1987	1	5	3	2	2	1	2	
g0059	1	1969	2	19	3	2	2	3	1	
g0060	1	1983	1	19	3	7	3	2	2	
g0061	1	1974	1	19	3	2	2	1	2	
g0062	1	1946	2	19	3	4	3	2	1	Lefel A
g0063	1	1937	2	19	3	5	5	5	1	Uwch 3
g0064	1	1922	2	19	3	5	4	0	0	
g0065	1	1947	1	19	3	2	3	3	1	Uwch 3
g0066	1	1965	2	19	3	2	2	5	1	Uwch
g0067	1	1977	1	4	3	4	3	1	2	
g0068	1	1962	1	19	3	2	3	1	2	
g0069	1	1958	1	19	3	2	2	1	2	
g0070	1	1953	1	5	3	3	2	1	2	
g0071	1	1941	2	19	3	2	2	4	1	Uwch
g0072	1	1951	2	19	3	4	3	3	1	Graenus 1
g0073	1	1934	1	19	3	2	2	1	0	
g0074	1	1950	2	19	3	2	1.2	2	1	Graenus
g0075	1	1949	1	19	3	2	1.2	2	1	Graenus
g0076	1	1939	1	19	3	2	2	5	1	Siawns am sgwrs
g0077	1	1952	1	19	0	2	1.2	3	2	
g0078	1	1949	1	19	3	2	2	4	1	Uwch
g0079	1	1928	2	19	3	1	1.1	2	2	
g0080	1	1941	1	19	3	2	2	3	1	
g0081	1	1945	1	19	3	2	2	3	1	Siawns am sgwrs
g0082	2	0	0	0	0			0	0	
g0092	1	1985	2	19	0	3	2	3	1	Sylfaen
g0093	1	1981	1	19	3	2	1.2	5	1	Mynediad 1
g0094	1	0	1	19	3			3	1	Uwch 2
g0095	1	1954	1	19	3	2	2	1	2	
g0096	1	1939	2	19	3	2	2	1	1	Uwch
g0097	1	1975	1	19	0	7	6	3	1	Uwch
g0098	1	1953	1	19	3	4	3	4	1	Uwch dwy
g0099	1	1948	2	19	0	2	2	4	2	
g0100	1	1979	2	19	3			2	1	
g0101	1	1987	2	19	3	3	2	3	1	Canolradd 1
g0102	1	1995	1	19	3	3	2	1	2	
g0103	1	0	0	0	0			0	0	
g0104	1	1953	2	19	3	2	1.2	1	1	Uwch
g0105	1	0	0	0	0			0	0	
g0106	1	0	0	0	0			0	0	
g0107	1	1969	2	19	2			3	1	Uwch level 1
g0108	1	1947	2	19	3			2	1	Gradd yn 2012 (dosbarth cyntaf)
g0109	1	0	0	0	0			0	0	
g0110	1	0	0	0	0			0	0	
g0111	1	0	0	0	0			0	0	
g0112	1	0	0	0	0			0	0	
g0113	1	1947	2	21	3	2	3	1	1	Hunan astudio
g0114	1	1939	1	21	3	4	3	5	1	
g0115	1	1954	2	4	3	2	1.2	3	2	
g0116	1	1949	2	4	3	1	2	3	1	Uwch
g0117	1	1944	1	4	3			3	1	Uwch
g0118	1	1949	1	4	3	2	2	3	1	Uwch
g0119	1	1951	1	4	3	2	2	1	1	
g0120	1	1943	1	4	3	4	3	3	1	Adolygu Uwch
g0121	2	0	0	0	0			0	0	
g0128	1	1982	1	5	3	2	2	1	2	
g0129	1	1983	1	19	3	2	2	1	2	
g0130	1	1982	1	19	3	2	2	1	2	
g0131	1	1988	1	5	3	3	2	1	2	
g0132	1	1982	1	5	3	2	2	1	2	
g0133	1	1988	1	19	3	2	2	1	2	
g0134	1	1986	1	19	3	4	6	2	2	
g0135	1	1994	1	14	3	2	2	1	2	
g0136	1	1984	1	19	3			1	2	
g0138	1	1972	1	19	3	2	2	4	2	
g0139	1	1963	1	19	3			1	2	
g0140	1	1980	1	19	3	2	1.2	1	2	
g0141	1	1974	2	5	3	2	3	1	2	
g0142	1	1947	0	17	3			3	1	Uwch
g0143	1	1953	1	19	3	2	1.2	1	2	
g0144	1	1950	1	19	3	4	3	4	1	Sylfaen
g0145	1	1956	1	19	3	2	2	3	1	Canolradd 1
g0146	1	1951	2	19	3			2	1	"Uwch, Lefel A"
g0147	1	1987	1	19	3	5	5	2	2	
g0148	1	0	0	0	0			0	0	
g0149	1	0	0	0	0			0	0	
g0150	1	0	0	0	0			0	0	
g0151	1	0	0	0	0			0	0	
g0152	1	0	0	0	0			0	0	
g0153	1	0	0	0	0			0	0	
g0154	1	0	0	0	0			0	0	
g0155	1	0	0	0	0			0	0	
g0156	1	0	0	0	0			0	0	
g0157	1	0	0	0	0			0	0	
g0158	1	0	0	0	0			0	0	
g0159	1	0	0	0	0			0	0	
g0160	1	0	0	0	0			0	0	
g0161	1	0	0	0	0			0	0	
g0162	2	0	0	0	0			0	0	
g0163	1	1962	1	14	3			1	2	
g0164	1	1989	1	19	3	3	2	1	2	
g0165	1	0	0	0	0			0	0	
g0166	1	0	0	0	0			0	0	
g0167	1	0	0	0	0			0	0	
g0168	1	1977	2	11	3			1	2	
g0169	1	1985	2	18	3	3	2	1	2	
g0170	1	1984	2	3	1			1	2	
g0171	1	0	0	0	0			0	0	
g0172	1	0	0	0	0			0	0	
g0173	1	0	0	0	0			0	0	
g0174	1	0	0	0	0			0	0	
g0175	1	2006	2	5	0			0	0	
g0176	1	2008	1	5	0			0	0	
g0177	1	0	0	0	0			0	0	
g0178	1	0	0	0	0			0	0	
g0179	1	1968	0	11	3	2	2	1	2	
g0180	1	1969	1	11	3	2	2	1	2	
g0181	1	0	0	0	0			0	0	
g0182	1	0	0	0	0			0	0	
g0183	1	0	0	0	0			0	0	
g0184	1	0	0	0	0			0	0	
g0185	1	0	0	0	0			0	0	
g0186	1	0	0	0	0			0	0	
g0187	1	0	0	0	0			0	0	
g0188	1	0	0	0	0			0	0	
g0189	1	1968	1	4	3			1	1	Uwch 4 wedyn gradd
g0190	1	1988	1	4	3	2	3	1	1	
g0191	1	0	0	0	0			0	0	
g0192	1	1946	2	19	3	2	2	1	2	
g0193	1	1955	1	19	3	3	2	1	2	
g0194	1	1959	1	19	3	2	2	1	2	
g0195	1	1962	1	19	3	3	2	1	2	
g0196	1	1948	1	19	3	3	2	1	2	
g0197	1	0	2	19	3			2	1	Uwch
g0198	1	1953	2	19	3	2	1.2	1	2	
g0199	1	1969	1	19	3	2	1.2	1	2	
g0200	1	1972	2	18	3	1	1.1	1	2	
g0201	1	1991	2	18	3	3	3	2	2	
g0202	1	1960	2	18	3	1	1.1	5	1	Beginner
g0203	1	1973	1	18	3	1	1.1	2	2	
g0204	1	1984	1	4	3	3	2	1	2	
g0205	1	1973	1	2	3	2	2	1	2	
g0206	1	1984	1	18	3			2	2	
g0207	1	1984	1	18	3			1	2	
g0208	1	1961	1	18	3	6	3	1	2	
g0209	1	1987	1	18	1			1	2	
g0210	1	1989	1	0	1			1	2	
g0211	1	1993	1	18	3	2	3	0	0	
g0212	1	1996	1	18	3	6	3	1	2	
g0213	1	1980	1	18	3	6	3	1	2	
g0214	1	1993	1	18	1			1	2	
g0215	1	1990	1	12	3			1	2	
g0216	1	1993	1	18	3	6	3	1	2	
g0217	1	1989	1	18	3	6	3	1	2	
g0218	1	1998	1	18	3			1	2	
g0219	1	1982	1	18	1			1	2	
g0220	1	1950	2	21	3	2	1.2	5	1	Sylfaen 1
g0221	1	1945	1	21	3	2	2	4	1	Sylfaen 1
g0222	1	1941	1	21	3	4		2	1	Uwch 2
g0223	1	1960	1	21	3	2	3	1	2	
g0224	1	0	0	0	0			0	0	
g0225	1	0	0	0	0			0	0	
g0226	1	0	0	0	0			0	0	
g0227	1	0	0	0	0			0	0	
g0228	1	0	0	0	0			0	0	
g0229	1	0	0	0	0			0	0	
g0230	1	0	0	0	0			0	0	
g0231	1	0	0	0	0			0	0	
g0232	1	0	0	0	0			0	0	
g0233	1	0	0	0	0			0	0	
g0234	1	0	0	0	0			0	0	
g0235	1	0	0	0	0			0	0	
g0236	1	0	0	0	0			0	0	
g0237	1	0	0	0	0			0	0	
g0238	1	0	0	0	0			0	0	
g0239	1	0	0	0	0			0	0	
g0240	1	0	0	0	0			0	0	
g0241	1	0	0	0	0			0	0	
g0242	1	0	0	0	0			0	0	
g0243	1	0	0	0	0			0	0	
g0244	1	0	0	0	0			0	0	
g0245	1	0	0	0	0			0	0	
g0246	1	0	0	0	0			0	0	
g0248	1	0	0	0	0			0	0	
g0249	1	0	0	0	0			0	0	
g0250	1	0	0	0	0			0	0	
g0251	1	0	0	0	0			0	0	
g0252	1	0	0	0	0			0	0	
g0253	1	0	0	0	0			0	0	
g0254	1	0	0	0	0			0	0	
g0255	1	0	0	0	0			0	0	
g0256	1	0	0	0	0			0	0	
g0257	1	0	0	0	0			0	0	
g0258	1	0	0	0	0			0	0	
g0259	1	1991	2	4	1			2	1	Canolradd/Uwch
g0260	1	0	0	0	0			0	0	
g0261	1	0	0	0	0			0	0	
g0262	1	0	0	0	0			0	0	
g0263	1	0	0	0	0			0	0	
g0264	1	0	0	0	0			0	0	
g0265	1	0	0	0	0			0	0	
g0266	1	0	0	0	0			0	0	
g0267	1	0	0	0	0			0	0	
g0268	1	0	0	0	0			0	0	
g0269	1	0	0	0	0			0	0	
g0270	1	0	0	0	0			0	0	
g0271	1	0	0	0	0			0	0	
g0277	1	0	0	0	0			0	0	
g0278	1	0	0	0	0			0	0	
g0279	1	0	0	0	0			0	0	
g0280	1	0	0	0	0			0	0	
g0281	1	0	0	0	0			0	0	
g0282	1	0	0	0	0			0	0	
g0283	1	0	0	0	0			0	0	
g0284	1	0	0	0	0			0	0	
g0285	1	0	0	0	0			0	0	
g0286	1	0	0	0	0			0	0	
g0287	1	0	0	0	0			0	0	
g0288	1	0	0	0	0			0	0	
g0289	1	0	0	0	0			0	0	
g0290	1	0	0	0	0			0	0	
g0291	1	0	0	0	0			0	0	
g0292	1	0	0	0	0			0	0	
g0293	1	0	0	0	0			0	0	
g0294	1	0	0	0	0			0	0	
g0295	1	0	0	0	0			0	0	
g0296	1	0	0	0	0			0	0	
g0297	1	0	0	0	0			0	0	
j0001	1	1968	2	5	3	3	2	1	2	
j0002	1	1969	1	5	3	6	6	1	2	
j0003	1	0	0	0	0			0	0	
j0004	1	1986	1	6	3	2	1.2	1	2	
j0005	1	1948	2	5	3	8	7	1	2	
j0006	1	1939	2	5	3	1	2	2	2	
j0007	1	1983	1	18	3	2	1.2	1	1	Hyfedredd (Glowyi)
j0008	1	1972	2	5	3	2	3	1	1	Meistrioli
j0009	1	1977	1	5	3	2	2	1	2	
j0010	1	1945	1	5	3	2	2	1	2	
j0011	1	1942	1	16	3	2	2	1	2	
j0012	1	0	0	0	0			0	0	
j0013	1	0	0	5	0			0	0	
j0014	1	0	0	0	0			0	0	
j0015	1	0	0	0	0			0	0	
j0023	1	1948	2	5	3			1	2	
j0024	1	1950	1	5	3			1	2	
j0031	1	1956	1	5	3	2	2	1	2	
j0035	1	1958	1	5	3			1	2	
j0036	1	1954	2	5	3			1	2	
j0043	1	0	0	0	0			0	0	
j0044	1	0	0	0	0			0	0	
j0083	1	1990	2	10	3	4	2	1	2	
j0084	1	1961	1	10	3	2	2	1	0	
j0085	1	0	0	0	0			0	0	
j0086	1	0	1	11	1			1	2	
j0087	1	0	0	0	0			0	0	
j0088	1	1994	2	11	3	5	4	1	2	
j0089	1	1991	1	11	3	9	7	1	2	
j0090	1	1990	1	11	3	3	2	1	2	
j0091	1	1979	1	11	3			1	2	
j0092	1	1988	2	11	3	2	1.2	1	2	
j0093	1	1992	1	10	3	3	2	1	2	
j0095	1	1991	1	10	3	3	2	1	2	
j0096	1	1979	1	11	3	4	2	1	2	
j0097	1	1949	2	11	3	5	4	1	2	
j0099	1	1955	2	10	3	2	2	1	2	
j0100	1	1960	1	10	3	3	2	1	2	
j0101	1	1987	2	4	3	2	2	1	2	
j0102	1	1959	2	4	3	3	2	1	0	
j0103	1	1960	2	5	3	1	1.1	1	2	
j0104	1	1998	2	4	1			1	2	
j0105	1	0	0	0	0			0	0	
j0106	1	1965	2	4	0	3	2	1	2	
j0107	1	1988	1	4	3	2	2	1	2	
j0108	1	1984	2	4	3			1	2	
j0109	1	1985	2	4	3	2	2	1	2	
j0110	1	1965	0	5	3	3	2	1	2	
j0111	1	1971	1	5	3	4	3	1	2	
j0112	1	1983	1	5	3	4	3	1	2	
j0113	1	1978	1	5	3	2	1.2	1	2	
j0114	1	1985	2	5	3	3	2	4	2	
j0118	1	1957	1	6	3			1	2	
j0119	1	1998	1	6	1			1	2	
j0122	1	1964	1	10	3			0	0	
j0123	1	0	0	0	0			0	0	
j0124	1	1961	2	6	3	1	1.1	1	2	
j0125	1	1962	1	6	3	5	4	1	2	
j0126	1	0	0	0	0			0	0	
j0127	1	0	0	0	0			0	0	
j0128	1	0	0	0	0			0	0	
j0129	1	0	0	0	0			0	0	
j0130	1	1964	1	17	3	2	2	1	0	
j0131	1	1957	1	24	3			3	1	Canolradd
j0132	1	1986	2	17	3			2	1	Cwrs Canolradd am Oedolion
j0133	1	1983	2	17	3	4	3	3	1	Canolradd
j0134	1	1985	2	17	3			0	0	
j0135	1	1992	1	17	0			0	0	
j0136	1	1986	1	17	3	3	2	1	2	
j0137	1	1989	2	4	3	3	2	1	2	
j0138	1	1940	1	17	3			1	2	
j0139	1	1979	1	17	3	4	6	1	2	
j0140	1	1970	1	17	3	4	6	1	1	Gloywi
j0141	1	1951	1	17	3	2	2	1	2	
j0142	1	1949	1	17	3	2	2	1	2	
j0143	1	1950	1	17	3	2	2	1	2	
j0144	1	1963	1	17	3	3	2	1	2	
j0145	1	0	0	0	0			0	0	
j0146	1	1941	2	17	3			5	2	
j0147	1	1951	2	17	3	6	6	1	2	
j0148	1	1943	1	17	0			1	2	
j0149	1	1932	1	17	3	2	2	1	2	
j0150	1	1950	1	17	3	2	2	1	2	
j0151	1	1978	1	3	3	2	2	1	2	
j0152	1	2007	1	3	0			0	0	
j0153	1	2007	1	4	0			0	0	
j0154	1	1978	2	7	3	5	4	0	2	
j0155	1	1980	1	7	3	2	2	1	2	
j0156	1	2006	2	7	0			0	0	
j0157	1	2004	2	7	0			0	0	
j0158	1	1977	1	7	0	2	2	1	2	
j0159	1	2004	2	7	0			0	0	
j0160	1	0	2	10	3			1	0	
j0161	1	1948	1	10	3			0	0	
j0162	1	1943	1	21	3	2	2	0	0	
j0163	1	1951	1	7	3	1	1.1	1	2	
j0167	1	0	0	0	0			0	0	
j0168	1	0	0	0	0			0	0	
j0169	1	1952	1	8	3	2	2	2	2	
j0170	1	0	0	0	0			0	0	
j0171	1	1978	2	13	3	2	1.2	1	2	
j0172	1	1943	1	4	3			1	2	
j0173	1	1942	2	4	3	2	2	1	2	
j0174	1	1959	2	5	0			1	2	
j0175	1	0	0	5	0			1	2	
j0176	1	0	0	0	0			0	0	
j0177	1	0	0	0	0			0	0	
j0178	1	1935	2	5	3	2	2	1	2	
j0179	1	1935	1	5	3	2	2	1	2	
j0180	1	0	0	0	0			0	0	
j0181	1	0	0	0	0			0	0	
j0182	1	1971	1	10	3			1	2	
j0183	1	1959	1	10	3			1	2	
j0184	1	1964	1	10	3	7	3	1	2	
j0185	1	1948	1	10	3	2	2	3	2	
j0188	1	1958	1	7	3	4	3	1	2	
j0193	1	1969	1	10	3	2	2	1	2	
j0194	1	1960	1	10	3	4	3	1	2	
j0198	1	1984	2	10	3	1	1.1	1	1	
j0201	1	1968	2	10	3	2	1.2	1	2	
j0202	1	1988	2	10	2			1	2	
j0213	1	1965	1	10	0			1	2	
j0214	1	1996	1	10	1			1	2	
j0254	1	1971	2	10	3	1	1.1	1	2	
j0259	1	1956	2	10	3	7	3	1	2	
j0264	1	0	1	10	3	7	3	1	2	
j0265	1	1969	2	10	3	7	3	2	2	
j0266	1	1969	1	10	3	4	3	1	2	
j0267	2	0	0	0	0			0	0	
j0268	2	0	0	0	0			0	0	
j0269	2	0	0	0	0			0	0	
j0270	2	0	0	0	0			0	0	
j0271	2	0	0	0	0			0	0	
j0272	2	0	0	0	0			0	0	
j0273	1	0	0	0	0			0	0	
j0274	2	0	0	0	0			0	0	
j0275	2	0	0	0	0			0	0	
j0276	2	0	0	0	0			0	0	
j0277	2	0	0	0	0			0	0	
j0278	1	1979	2	16	3	3	3	3	2	
j0279	1	0	0	0	0			0	0	
j0280	1	0	0	0	0			0	0	
j0281	1	0	0	0	0			0	0	
j0282	1	0	0	0	0			0	0	
j0283	1	0	0	0	0			0	0	
j0284	1	0	0	0	0			0	0	
j0285	1	0	0	0	0			0	0	
j0286	1	0	0	0	0			0	0	
j0287	1	0	0	0	0			0	0	
j0288	1	0	0	0	0			0	0	
j0289	1	0	0	0	0			0	0	
j0294	1	1958	2	19	3	2	2	1	2	
j0299	2	0	0	0	0			0	0	
j0339	1	1984	1	3	3			1	2	
j0365	1	0	0	0	0			0	0	
j0366	1	0	0	0	0			0	0	
j0367	1	0	0	0	0			0	0	
j0368	1	1980	2	6	3	3	2	1	2	
j0369	1	1988	2	16	2	3	2	1	2	
j0370	2	0	0	0	0			0	0	
j0375	2	0	0	0	0			0	0	
j0376	2	0	0	0	0			0	0	
j0378	2	0	0	0	0			0	0	
j0379	2	0	0	0	0			0	0	
j0380	2	0	0	0	0			0	0	
j0381	2	0	0	0	0			0	0	
j0382	2	0	0	0	0			0	0	
j0384	2	0	0	0	0			0	0	
j0385	2	0	0	0	0			0	0	
j0386	2	0	0	0	0			0	0	
j0387	2	0	0	0	0			0	0	
j0388	2	0	0	0	0			0	0	
j0389	2	0	0	0	0			0	0	
j0390	2	0	0	0	0			0	0	
j0391	2	0	0	0	0			0	0	
j0392	2	0	0	0	0			0	0	
j0393	2	0	0	0	0			0	0	
j0394	2	0	0	0	0			0	0	
j0395	2	0	0	0	0			0	0	
j0396	2	0	0	0	0			0	0	
j0397	2	0	0	0	0			0	0	
j0398	2	0	0	0	0			0	0	
j0399	2	0	0	0	0			0	0	
j0401	2	0	0	0	0			0	0	
j0402	2	0	0	0	0			0	0	
j0403	2	0	0	0	0			0	0	
j0404	2	0	0	0	0			0	0	
j0405	2	0	0	0	0			0	0	
j0406	2	0	0	0	0			0	0	
j0407	2	0	0	0	0			0	0	
j0408	2	0	0	0	0			0	0	
j0409	2	0	0	0	0			0	0	
j0410	2	0	0	0	0			0	0	
j0411	2	0	0	0	0			0	0	
j0412	2	0	0	0	0			0	0	
j0414	2	0	0	0	0			0	0	
j0415	2	0	0	0	0			0	0	
j0416	2	0	0	0	0			0	0	
j0438	1	1966	1	6	3			0	0	
j0439	1	1994	1	6	3			0	0	
j0451	1	1961	1	16	3	2	3	1	1	
j0452	1	1993	2	16	3	2	1.2	2	2	
j0453	1	1996	1	16	1			1	2	
j0454	1	1995	2	16	3	2	1.2	1	2	
j0458	1	1982	1	16	3	2	2	1	2	
j0459	1	1963	1	16	3	2	1.2	1	2	
j0461	1	1956	2	16	0	2	1.2	1	2	
j0462	1	1997	1	16	1			1	2	
j0467	1	1966	1	8	3	3	2	1	2	
j0468	1	1965	1	22	3	3	2	1	2	
j0469	1	1977	1	22	3			1	2	
j0470	1	1970	1	17	3	3	2	1	2	
j0471	1	1979	1	9	3			1	2	
j0472	2	0	0	0	0			0	0	
j0473	1	0	1	2	3			3	2	
j0503	1	1992	1	10	3			1	2	
j0504	2	0	0	0	0			0	0	
j0505	1	1966	1	9	3	1		1	2	
j0506	1	1956	2	9	3			1	2	
j0507	2	0	0	0	0			0	0	
j0508	1	1959	1	9	3	3		1	2	
j0509	1	1985	1	8	3			1	2	
j0510	1	1957	1	9	3	1		1	2	
j0511	1	1950	2	8	3			1	2	
j0512	1	1950	1	8	0	2		1	2	
j0519	2	0	0	0	0			0	0	
j0520	1	1954	2	8	3			1	2	
j0527	1	1972	1	8	3	2		1	2	
j0528	1	2007	2	8	0			0	0	
j0529	1	2009	1	8	0			0	0	
j0530	1	2011	1	8	0			0	0	
j0531	1	0	0	0	0			0	0	
j0532	1	1947	1	22	3	2		1	2	
j0533	1	1937	2	22	3			1	2	
j0534	1	1954	1	22	3	2		1	2	
j0535	1	1979	2	9	3			1	2	
j0536	1	1987	2	22	3			1	2	
j0537	2	0	0	0	0			0	0	
j0539	2	0	0	0	0			0	0	
j0540	2	0	0	0	0			0	0	
j0541	1	1975	2	6	3			1	2	
j0542	1	0	0	0	0			0	0	
j0573	2	0	0	0	0			0	0	
j0618	1	1968	2	4	3	2		1	2	
j0625	2	0	0	0	0			0	0	
j0631	1	1987	1	5	3	2		1	2	
j0632	1	0	0	0	0			0	0	
j0637	1	0	0	0	0			0	0	
j0638	1	0	0	0	0			0	0	
j0639	1	0	0	0	0			0	0	
j0640	1	0	0	0	0			0	0	
j0641	1	0	0	0	0			0	0	
j0642	1	1992	1	2	1			1	2	
j0643	1	0	0	0	0			0	0	
j0644	1	0	0	0	0			0	0	
j0648	1	1961	1	17	3	3		1	2	
j0649	1	1991	1	5	3			1	2	
j0650	1	1990	1	14	3	3		1	2	
j0651	1	1977	2	17	3	2	3	1	2	
j0654	1	1991	2	13	3	2	2	1	1	BA Cymraeg
j0658	1	1944	2	18	3			3	1	
j0659	1	1942	2	2	3	5	4	3	0	
j0660	1	1953	1	18	3	2	2	2	1	
j0661	1	1942	2	14	3			4	1	
j0663	2	0	0	0	0			0	0	
j0665	1	2004	2	18	0			0	0	
j0666	1	2005	1	18	0			0	0	
j0667	1	2005	1	18	0			0	0	
j0668	1	2005	1	18	0			0	0	
j0669	1	2004	1	18	0			0	0	
j0670	1	2005	1	18	0			0	0	
j0671	1	2005	1	18	0			0	0	
j0672	1	2005	2	18	0			0	0	
j0673	1	2005	2	18	0			0	0	
j0674	1	2004	1	18	0			0	0	
j0675	1	2005	1	18	0			0	0	
j0676	1	2005	1	18	0			0	0	
j0677	1	2004	2	18	0			0	0	
j0678	1	2005	1	18	0			0	0	
j0679	1	2004	1	18	0			0	0	
j0680	1	2005	2	18	0			0	0	
j0681	1	2005	1	18	0			0	0	
j0682	1	2004	2	18	0			0	0	
j0683	1	2005	2	18	0			0	0	
j0684	1	2005	2	18	0			0	0	
j0685	1	2004	1	18	0			0	0	
j0686	1	2005	2	18	0			0	0	
j0687	1	2004	2	18	0			0	0	
j0688	1	2005	1	18	0			0	0	
j0689	1	2005	2	18	0			0	0	
j0690	1	2005	2	18	0			0	0	
j0691	1	2005	1	18	0			0	0	
j0692	1	2004	1	18	0			0	0	
j0693	1	2005	1	18	0			0	0	
j0694	1	2004	1	18	0			0	0	
j0695	1	2005	2	18	0			0	0	
j0696	1	2004	1	18	0			0	0	
j0697	1	2005	1	18	0			0	0	
j0698	1	1973	1	18	3	3	2	1	2	
j0699	1	1990	1	18	3	2	2	1	2	
j0700	1	1989	2	4	3	2	2	1	2	
j0701	1	1961	2	18	3	2	2	1	2	
j0702	1	1974	1	4	3	2	2	1	2	
j0703	1	1988	2	18	2			2	2	
j0704	1	1985	2	4	3	2	2	1	2	
j0705	1	1975	1	2	0			1	2	
j0706	1	1982	1	18	3	2	2	1	2	
j0707	2	0	0	0	0			0	0	
j0720	1	1969	2	18	3	3		1	2	
j0721	1	1972	1	18	3	3		4	1	Sylfaen
j0722	1	2006	2	18	0			0	0	
j0723	1	2009	2	18	0			0	0	
j0725	1	1971	1	5	3	2		1	2	
j0726	1	1974	1	19	0	2		1	2	
j0727	1	1982	1	19	3			1	1	MA Cyfieithu
j0728	2	0	0	0	0			0	0	
j0731	1	1959	0	19	3	2		1	1	
j0732	1	1990	0	5	3	2		0	0	
j0733	1	1984	1	2	1			1	2	
j0734	1	1982	1	27	3	2		3	1	Meistrioli (Cwrs Meistrioli Caerdydd 2011)
j0735	2	0	0	0	0			0	0	
j0736	1	1977	1	5	3	3		1	2	
j0737	1	1990	1	10	3			1	0	
j0738	1	0	0	0	0			0	0	
j0739	1	0	0	0	0			0	0	
j0740	1	0	0	0	0			0	0	
j0741	1	0	0	0	0			0	0	
j0742	1	0	0	0	0			0	0	
j0743	1	0	0	0	0			0	0	
j0744	1	0	0	0	0			0	0	
j0745	1	0	0	0	0			0	0	
j0746	1	0	0	0	0			0	0	
j0747	1	0	0	0	0			0	0	
j0748	1	0	0	0	0			0	0	
j0749	1	0	0	0	0			0	0	
j0750	1	0	0	0	0			0	0	
j0751	1	0	0	0	0			0	0	
j0752	1	0	0	0	0			0	0	
j0753	1	0	0	0	0			0	0	
j0754	1	0	0	0	0			0	0	
j0755	1	0	2	0	0			0	0	
j0756	1	0	1	0	0			0	0	
j0757	1	0	1	0	0			0	0	
j0758	1	0	2	0	0			0	0	
j0759	1	0	2	0	0			0	0	
J0760	1	0	1	0	0			0	0	
j0761	1	0	1	0	0			0	0	
j0762	1	1975	1	5	3	2		1	2	
j0764	1	0	2	0	0			0	0	
j0765	1	0	2	0	0			0	0	
j0766	1	0	0	0	0			0	0	
j0767	1	0	2	0	0			0	0	
j0768	1	0	2	0	0			0	0	
j0769	1	0	2	0	0			0	0	
j0770	1	0	1	0	0			0	0	
j0771	1	0	1	0	0			0	0	
j0772	1	0	2	0	0			0	0	
j0773	2	0	0	0	0			0	0	
j0774	1	1961	2	5	3	5		2	2	
j0775	1	1983	1	19	3			1	2	
j0776	1	1958	2	4	3	2		2	2	
J0777	1	1991	1	5	3	9		1	2	
j0778	1	1955	2	5	3	1		1	2	
j0779	1	1957	1	5	3	3		1	2	
j0783	2	0	0	0	0			0	0	
j0786	2	0	0	0	0			0	0	
j0787	1	1986	2	5	3	3		2	2	
j0788	1	1977	1	5	2	3		4	1	Lefel 4/5
j0789	1	1963	2	5	3	3		4	0	
j0791	2	0	0	0	0			0	0	
j0793	1	1985	1	10	3	6		1	2	
j0794	1	1985	1	10	3			1	2	
j0796	2	0	0	0	0			0	0	
j0817	1	1961	0	6	3	2		1	2	
j0818	1	1953	1	7	3	2		1	2	
j0819	1	0	0	0	0			0	0	
j0820	1	1945	2	10	3	2		1	2	
j0821	1	0	0	0	0			0	0	
j0822	1	0	0	0	0			0	0	
j0823	1	1951	2	6	3			2	2	
j0824	1	1993	2	6	3	1		1	2	
j0825	1	0	0	0	0			0	0	
j0826	1	0	0	0	0			0	0	
j0827	1	1957	2	6	3			1	2	
j0828	1	0	0	0	0			0	0	
j0829	1	0	0	0	0			0	0	
j0830	1	1973	1	6	0	3		1	2	
j0831	1	1967	2	16	3	3		1	2	
j0832	1	0	0	0	0			0	0	
j0833	1	0	0	0	0			0	0	
j0835	1	0	0	0	0			0	0	
j0836	1	0	0	0	0			0	0	
j0837	1	0	0	0	0			0	0	
j0838	1	0	0	0	0			0	0	
j0839	2	0	0	0	0			0	0	
j0840	2	0	0	0	0			0	0	
j0841	2	0	0	0	0			0	0	
j0842	1	2015	2	5	0			0	0	
j0843	1	1955	1	5	3	2		1	2	
j0849	1	1974	1	5	3	3		0	2	
j0850	1	1968	1	5	3	3		1	2	
j0851	1	2002	1	5	0			0	0	
j0852	1	2001	1	5	0			0	0	
j0853	1	2002	1	5	0			0	0	
j0854	1	2001	1	5	0			0	0	
j0855	1	2000	1	5	0			0	0	
j0856	1	1995	1	5	0			0	0	
j0857	1	2000	1	19	0			0	0	
j0858	1	2001	1	5	0			0	0	
j0859	2	0	0	0	0			0	0	
j0873	1	2011	1	5	0			0	0	
j0874	1	2009	2	5	0			0	0	
j0875	1	1977	2	16	0			0	0	
j0879	1	2000	1	10	1			1	2	
j0880	1	1951	1	10	3	2		1	2	
j0881	1	1961	1	10	3	5		1	2	
j0890	1	1989	2	2	3	1		1	2	
j0891	1	1961	1	2	3	4		1	2	
j0899	1	1980	1	14	3	2		1	2	
j0900	1	1950	1	3	3	2		4	1	Sylfaen / Canolradd
j0901	1	1960	1	2	3	1		4	1	Sylfaen / Canolradd
j0902	1	1955	1	18	3			4	1	Sylfaen / Canolradd
j0903	1	1954	1	2	3			3	1	Sylfaen
j0904	1	1938	1	2	3	2		3	1	Sylfaen
j0905	1	1978	1	4	3	2		3	1	Canolradd 1
j0906	1	1962	1	3	3	2		1	2	
j0914	1	1976	1	5	3			2	2	
j0915	1	2001	1	5	0			0	0	
j0916	1	2001	1	5	0			0	0	
j0917	1	2001	2	5	0			0	0	
j0918	1	2001	2	5	0			0	0	
j0919	1	0	0	0	0			0	0	
j0920	1	2002	2	5	0			0	0	
j0921	1	2002	2	5	0			0	0	
j0922	2	0	0	0	0			0	0	
l0000	2	0	0	0	0			0	0	
l0001	2	0	0	0	0			0	0	
l0002	2	0	0	0	0			0	0	
l0003	2	0	0	0	0			0	0	
l0005	2	0	0	0	0			0	0	
l0006	2	0	0	0	0			0	0	
l0007	2	0	0	0	0			0	0	
l0008	2	0	0	0	0			0	0	
l0009	2	0	0	0	0			0	0	
l0010	1	0	0	0	0			0	0	
l0011	2	0	0	0	0			0	0	
l0012	2	0	0	0	0			0	0	
l0013	2	0	0	0	0			0	0	
l0015	2	0	0	0	0			0	0	
l0016	2	0	0	0	0			0	0	
l0018	2	0	0	0	0			0	0	
l0021	2	0	0	0	0			0	0	
l0022	2	0	0	0	0			0	0	
l0024	2	0	0	0	0			0	0	
l0025	2	0	0	0	0			0	0	
l0026	2	0	0	0	0			0	0	
l0027	2	0	0	0	0			0	0	
l0028	2	0	0	0	0			0	0	
l0029	2	0	0	0	0			0	0	
l0030	2	0	0	0	0			0	0	
l0032	2	0	0	0	0			0	0	
l0033	2	0	0	0	0			0	0	
l0034	2	0	0	0	0			0	0	
l0035	2	0	0	0	0			0	0	
l0037	2	0	0	0	0			0	0	
l0038	2	0	0	0	0			0	0	
l0039	2	0	0	0	0			0	0	
l0041	2	0	0	0	0			0	0	
l0042	2	0	0	0	0			0	0	
l0044	1	1954	2	4	3	2	1.2	5	1	Gloywi
l0045	2	0	0	0	0			0	0	
l0049	2	0	0	0	0			0	0	
l0051	2	0	0	0	0			0	0	
l0052	2	0	0	0	0			0	0	
l0053	2	0	0	0	0			0	0	
l0054	2	0	0	0	0			0	0	
l0058	2	0	0	0	0			0	0	
l0059	2	0	0	0	0			0	0	
l0060	2	0	0	0	0			0	0	
l0061	2	0	0	0	0			0	0	
l0062	2	0	0	0	0			0	0	
l0063	2	0	0	0	0			0	0	
l0064	2	0	0	0	0			0	0	
l0065	2	0	0	0	0			0	0	
l0066	2	0	0	0	0			0	0	
l0067	2	0	0	0	0			0	0	
l0068	2	0	0	6	0			0	0	
l0069	2	0	0	0	0			0	0	
l0070	2	0	0	0	0			0	0	
l0071	2	0	0	0	0			0	0	
l0072	2	0	0	0	0			0	0	
l0073	2	0	0	0	0			0	0	
l0075	2	0	0	0	0			0	0	
l0076	2	0	0	0	0			0	0	
l0077	2	0	0	0	0			0	0	
l0079	2	0	0	0	0			0	0	
l0080	2	0	0	0	0			0	0	
l0081	2	0	0	0	0			0	0	
l0083	2	0	0	0	0			0	0	
l0084	2	0	0	0	0			0	0	
l0085	2	0	0	0	0			0	0	
l0086	2	0	0	0	0			0	0	
l0087	2	0	0	0	0			0	0	
l0088	2	0	0	0	0			0	0	
l0089	2	0	0	0	0			0	0	
l0090	2	0	0	0	0			0	0	
l0091	2	0	0	0	0			0	0	
l0094	2	0	0	0	0			0	0	
l0095	2	0	0	0	0			0	0	
l0097	2	0	0	0	0			0	0	
l0098	2	0	0	0	0			0	0	
l0100	2	0	0	0	0			0	0	
l0101	2	0	0	0	0			0	0	
l0103	2	0	0	0	0			0	0	
l0104	1	1985	2	10	3	3	2	1	2	
l0105	2	0	0	0	0			0	0	
l0106	2	0	0	0	0			0	0	
l0107	2	0	0	0	0			0	0	
l0108	2	0	0	0	0			0	0	
l0109	1	1953	1	27	3	2	2	1	2	
l0111	1	1982	2	4	3	2	1.2	1	2	
l0113	2	0	0	0	0			0	0	
l0114	2	0	0	0	0			0	0	
l0115	2	0	0	0	0			0	0	
l0116	2	0	0	0	0			0	0	
l0117	1	1979	2	4	3	1	1.1	1	2	
l0118	1	0	0	0	0			0	0	
l0119	2	0	0	0	0			0	0	
l0120	2	0	0	0	0			0	0	
l0121	2	0	0	0	0			0	0	
l0122	2	0	0	0	0			0	0	
l0123	2	0	0	0	0			0	0	
l0124	2	0	0	0	0			0	0	
l0125	2	0	0	0	0			0	0	
l0126	2	0	0	0	0			0	0	
l0127	1	1989	1	4	3	2	2	1	2	
l0128	1	1989	2	4	3	2	1.2	1	2	
l0129	1	1964	1	10	3	4	3	1	2	
l0130	1	1963	2	10	3	4	3	1	2	
l0131	1	1991	1	4	3	2	1.2	1	2	
l0132	1	0	0	10	3	2	2	2	1	Gloywi
l0133	2	0	0	0	0			0	0	
l0134	2	0	0	0	0			0	0	
l0135	2	0	0	0	0			0	0	
l0136	2	0	0	0	0			0	0	
l0137	2	0	0	0	0			0	0	
l0138	2	0	0	0	0			0	0	
l0139	1	1974	1	4	3	3	2	1	2	
l0140	1	1999	2	4	1			1	1	Lefel Uwch Gyda Prifysgol
l0141	1	0	2	4	3	2	2	1	2	
l0142	2	0	0	0	0			0	0	
l0144	2	0	0	0	0			0	0	
l0145	2	0	0	0	0			0	0	
l0150	2	0	0	0	0			0	0	
l0151	2	0	0	0	0			0	0	
l0153	1	1991	1	4	3	7	3	1	2	
l0154	2	0	0	0	0			0	0	
l0155	2	0	0	0	0			0	0	
l0156	1	1999	1	19	1			1	2	
l0183	2	0	0	0	0			0	0	
l0185	2	0	0	10	0			0	0	
l0186	1	0	0	0	0			0	0	
l0187	1	0	0	0	0			0	0	
l0188	1	0	0	0	0			0	0	
l0189	1	0	0	0	0			0	0	
l0190	1	0	0	0	0			0	0	
l0191	1	0	0	0	0			0	0	
l0192	1	0	0	0	0			0	0	
l0193	1	0	0	0	0			0	0	
l0194	1	0	0	0	0			0	0	
l0195	1	0	0	0	0			0	0	
l0197	1	0	0	0	0			0	0	
l0198	1	0	0	0	0			0	0	
l0199	1	0	0	0	0			0	0	
l0200	1	0	0	0	0			0	0	
l0201	2	0	0	8	0			0	0	
l0202	1	0	0	0	0			0	0	
l0203	1	0	0	0	0			0	0	
l0204	1	0	0	0	0			0	0	
l0205	1	0	0	22	0			0	0	
l0206	1	0	0	22	0			0	0	
l0207	1	1980	0	22	3	3	2	1	2	
l0209	1	0	1	10	0			0	0	
l0210	1	0	0	0	0			0	0	
l0211	1	0	1	10	3	3	2	1	2	
l0212	2	0	0	0	0			0	0	
l0213	1	0	0	0	0			0	0	
l0214	1	0	0	0	0			0	0	
l0216	1	0	2	5	3	2	2	0	0	
l0217	1	1958	2	5	3	2	2	1	2	
l0218	1	1965	1	19	3	2	2	1	2	
l0219	1	1969	1	5	3	2	2	1	2	
l0220	1	1988	1	19	3	2	2	1	2	
l0221	1	0	0	0	0			0	0	
l0222	1	0	0	0	0			0	0	
l0223	1	1987	1	10	0			1	2	
l0224	1	2014	2	10	0			0	0	
l0225	1	2011	2	10	0			0	0	
l0226	1	1979	2	10	3			0	0	
l0227	1	1983	2	4	3	2	2	1	2	
l0228	2	0	0	0	0			0	0	
l0229	1	0	0	0	0			0	0	
l0230	1	0	0	0	0			0	0	
l0231	1	0	0	0	0			0	0	
l0232	1	0	0	0	0			0	0	
l0233	1	0	0	0	0			0	0	
l0234	1	0	0	0	0			0	0	
l0235	1	0	0	0	0			0	0	
l0236	1	0	0	0	0			0	0	
l0237	1	0	0	0	0			0	0	
l0238	1	0	0	0	0			0	0	
l0239	1	0	0	0	0			0	0	
l0240	1	0	0	0	0			0	0	
l0241	1	0	0	0	0			0	0	
l0242	1	0	0	0	0			0	0	
l0243	1	0	0	0	0			0	0	
l0244	1	0	0	0	0			0	0	
l0245	1	0	0	0	0			0	0	
l0246	2	0	0	0	0			0	0	
l0247	2	0	0	0	0			0	0	
l0248	2	0	0	0	0			0	0	
l0249	1	1998	1	10	1			1	2	
l0250	1	1997	1	4	1			1	2	
l0251	2	0	0	0	0			0	0	
l0252	1	0	0	0	0			0	0	
l0253	1	0	0	0	0			0	0	
l0254	1	0	0	0	0			0	0	
l0255	1	0	0	0	0			0	0	
l0256	1	0	0	0	0			0	0	
l0257	1	0	0	0	0			0	0	
l0258	1	0	0	0	0			0	0	
l0259	1	0	0	0	0			0	0	
l0260	1	0	0	0	0			0	0	
l0261	1	0	0	0	0			0	0	
l0265	1	0	0	0	0			0	0	
l0266	1	0	0	0	0			0	0	
l0267	1	0	0	0	0			0	0	
l0268	1	0	0	0	0			0	0	
l0269	1	0	0	0	0			0	0	
l0270	1	0	0	0	0			0	0	
l0271	1	0	0	0	0			0	0	
l0272	1	0	0	0	0			0	0	
l0273	1	0	0	0	0			0	0	
l0274	1	0	0	0	0			0	0	
l0275	1	0	0	0	0			0	0	
l0276	1	0	0	0	0			0	0	
l0277	1	0	0	0	0			0	0	
l0278	1	0	0	0	0			0	0	
l0279	1	0	0	0	0			0	0	
l0280	1	0	0	0	0			0	0	
l0281	1	0	0	0	0			0	0	
l0282	1	0	0	0	0			0	0	
l0283	1	0	0	0	0			0	0	
l0284	1	0	0	0	0			0	0	
l0285	1	0	0	0	0			0	0	
l0286	1	0	0	0	0			0	0	
l0287	1	0	0	0	0			0	0	
l0288	1	0	0	0	0			0	0	
l0289	1	0	0	0	0			0	0	
l0290	1	1962	1	19	3	2	2	1	2	
l0291	1	1951	1	5	3	5	4	1	2	
l0292	1	1955	2	10	3	2	1.2	1	2	
l0293	2	0	0	0	0			0	0	
l0294	1	1988	1	27	1			3	1	Canolraddd
l0295	1	1962	1	19	3	3	2	1	2	
l0296	1	1961	2	4	3	2	1.2	1	2	
l0297	1	0	0	0	0			0	0	
l0298	1	0	0	0	0			0	0	
l0299	1	0	0	0	0			0	0	
l0300	1	0	0	0	0			0	0	
l0301	1	1987	1	4	1			2	2	Gloywi/ Uwch
l0302	1	1983	2	3	3			4	1	
l0304	2	0	0	0	0			0	0	
l0305	2	0	0	0	0			0	0	
l0306	2	0	0	0	0			0	0	
l0307	2	0	0	0	0			0	0	
l0308	2	0	0	0	0			0	0	
l0309	1	0	0	0	0			0	0	
l0310	1	0	0	0	0			0	0	
l0311	1	0	0	0	0			0	0	
l0312	1	0	0	0	0			0	0	
l0313	1	0	0	0	0			0	0	
l0314	1	0	0	0	0			0	0	
l0315	2	0	0	0	0			0	0	
l0316	2	0	0	0	0			0	0	
l0317	1	1956	2	10	0			1	2	
l0318	1	1990	1	11	1			3	1	Pellach
l0319	1	1993	2	27	1			2	1	Uwch/ Pellach
l0320	1	1996	2	10	1			1	2	
l0321	1	1953	1	10	3			1	2	
l0322	1	1996	2	10	1			2	1	
l0323	1	1956	2	10	3			2	1	Uwch
l0324	1	1957	2	7	3			4	1	Pellach
l0325	1	1964	1	7	3			4	1	Pellach
m0004	1	0	0	0	0			0	0	
m0005	1	1961	0	0	0			0	0	
m0006	1	0	0	0	0			0	0	
m0007	1	0	0	0	0			0	0	
m0008	1	0	0	0	0			0	0	
m0009	1	0	0	15	0			0	0	
m0010	1	0	0	0	0			0	0	
m0011	1	0	0	0	0			0	0	
m0025	1	1942	1	15	3	1	1.1	1	2	
m0032	1	0	0	0	0			0	0	
m0071	1	1947	1	19	3	2	2	2	2	
m0079	1	0	1	4	3	2	2	1	2	
m0102	1	1975	2	5	3	2		1	2	
m0106	1	1983	2	6	3	2	2	1	2	
m0110	1	1948	2	12	3	4	3	3	1	Canolradd
m0199	1	0	0	0	0			0	0	
m0234	1	1992	2	1	3	3	2	1	2	
m0265	2	0	0	0	0			0	0	
m0267	2	0	0	0	0			0	0	
m0359	2	0	0	0	0			0	0	
m0399	1	1960	1	15	3			1	2	
s0030	1	1963	1	5	3	2		1	2	
s0031	1	1960	2	5	3			1	2	
x0001	1	1967	1	21	0			1	1	Heb wneud cwrs
x0002	2	0	0	0	0			0	0	
x0003	1	1976	2	9	3			0	2	
x0004	1	1985	2	4	3			5	1	Chapter 3 of a 25 chapter book
x0006	1	1964	1	19	3			4	1	mynediad
x0009	1	1989	1	19	3			1	2	
x0010	2	0	0	0	0			0	0	
x0013	1	1993	1	7	1			2	2	
x0014	1	1984	1	5	3			1	2	
x0015	1	1984	1	5	3			1	2	
x0017	1	1979	1	19	1			1	2	
x0020	1	1945	2	8	3			0	2	
x0021	1	1936	2	8	3			0	2	
x0022	1	1949	2	8	3			0	2	
x0023	1	1956	2	10	3			1	2	
x0024	1	2000	2	8	0			1	2	
x0034	1	1975	2	9	3			1	2	
x0037	1	1988	2	22	1			1	2	
x0039	1	1953	2	12	3			1	1	Hyfredredd
x0040	1	1947	1	12	3			3	1	Hyfedref
x0041	1	1951	1	12	3			1	2	
x0043	2	0	0	0	0			0	0	
x0044	1	1985	1	4	3			1	2	
x0045	2	0	0	0	0			0	0	
x0046	1	0	1	5	0			0	0	
x0047	1	1959	1	17	3			3	2	
x0048	2	0	0	0	0			0	0	
x0049	1	1954	1	10	3			5	1	Cwrs Pellach
x0050	1	1960	1	18	3			4	1	Mynediad (now in Year 1 Sylvaen)
x0051	1	1952	1	0	3			3	1	Uwch
x0054	1	1957	2	7	3			4	1	Uwch
x0055	1	1993	1	19	3			3	1	Canolradd
x0058	1	1966	2	19	3			1	1	Cwrs Iaith: Cwrs Meistroli Caerdydd 1989.
x0059	1	1989	1	4	3			3	1	uwch
x0060	1	1979	2	4	0			4	1	slfaen 1
x0061	1	1991	1	4	1			1	2	
x0062	2	0	0	0	0			0	0	
x0067	1	1985	1	4	3			1	2	
x0068	2	0	0	0	0			0	0	
x0070	2	0	0	0	0			0	0	
x0071	2	0	0	0	0			0	0	
x0073	1	1995	1	10	3			1	2	
x0074	1	1999	1	5	1			1	2	
x0076	1	1991	1	4	3			1	2	
x0078	1	1978	2	10	3			4	1	Wlpan
x0079	1	1991	2	4	3			5	2	
x0080	1	1958	2	10	3			2	2	
x0081	1	1991	1	4	3			1	2	
x0083	2	0	0	0	0			0	0	
x0085	2	0	0	0	0			0	0	
x0086	1	1983	1	18	3			1	2	
x0090	1	1963	1	15	3			4	1	Sylfaen
x0091	2	0	0	0	0			0	0	
x0092	1	1980	1	10	0			1	1	"Meistroli, level A i oedolion"
x0093	1	1983	2	11	3			1	1	Uwch
x0098	1	1955	2	8	3			3	1	Uwch
x0099	1	1961	1	9	3			3	1	Canolradd
x0100	1	1947	2	9	3			3	1	Canolrad
x0101	1	1959	2	7	3			2	1	Meistrioli
x0102	1	0	2	8	3			1	2	Hyfedredd
x0103	1	1944	1	7	3			2	1	Uwch
x0104	1	1954	2	8	3			1	2	Uwch
x0107	1	1967	2	15	0			0	1	Uwch
x0115	1	1963	1	7	3			1	2	
x0117	1	1972	2	7	3			1	2	
x0124	1	1969	1	10	3			1	2	
x0126	2	0	0	0	0			0	0	
x0128	1	1982	1	4	3			0	2	
x0133	2	0	0	0	0			0	0	
x0134	1	1947	2	12	3			2	1	
x0136	1	1975	2	4	3			0	2	
x0137	2	0	0	0	0			0	0	
x0138	2	0	0	0	0			0	0	
x0139	1	1965	1	16	0			1	2	
x0140	1	1995	2	19	0			1	2	
x0144	1	1957	1	10	3			1	2	
x0147	1	1974	1	4	3			0	0	
z0001	1	0	0	0	0			0	0	
z0002	2	0	0	0	0			0	0	
z0003	2	0	0	0	0			0	0	
z0012	1	1961	2	7	3	5		1	2	
z0013	1	1943	2	7	3			1	2	
z0014	1	1999	1	11	1			1	2	
z0015	1	1982	1	24	3	2		1	2	
z0017	1	1963	2	10	3	5		1	2	
z0018	1	1993	2	10	3	5		1	2	
z0019	1	1963	1	10	3	5		1	2	
z0020	1	1946	2	7	0			1	0	
z0021	1	1930	2	8	0			1	2	
z0022	1	1928	2	10	0			1	2	
z0023	1	1946	2	7	0			1	2	